{
	"name": "Jordan 12",
	"description": "black, size 10",
	"price": "8000",
	"stocks": 5,
	"isActive": true,
	"SKU": "PHJ12BS10"
},
{
	"name": "GSW Jersey #30",
	"description": "blue, medium size",
	"price": "5000",
	"stocks": 2,
	"isActive": true,
	"SKU": "PHG30BSMS"
},
{
	"name": "Jordan 12",
	"description": "black, size 7",
	"price": "8000",
	"stocks": 5,
	"isActive": true,
	"SKU": "PHJ12BS07"
},
{
	"name": "GSW Jersey #30",
	"description": "blue, medium small",
	"price": "5000",
	"stocks": 2,
	"isActive": true,
	"SKU": "PHG30BSSS"
}
