{
	"firstName": "Yoboy",
	"lastName": "Fernandez",
	"email": "yoboyfernandezjr@gmail.com",
	"password": "password123",
	"isAdmin": false,
	"mobileNumber": "09176543210"
},
{
	"firstName": "Yogirl",
	"lastName": "Fernandez",
	"email": "yogirlfernandezjr@gmail.com",
	"password": "password456",
	"isAdmin": false,
	"mobileNumber": "09176543211"
}